127.0.0.1 - - [23/Sep/2017:12:25:32 +0700] "GET / HTTP/1.1" 404 994
0:0:0:0:0:0:0:1 - - [23/Sep/2017:12:26:14 +0700] "GET /Module03_02_Servlet/showproduct.jsp HTTP/1.1" 500 2916
0:0:0:0:0:0:0:1 - - [23/Sep/2017:12:26:15 +0700] "GET /favicon.ico HTTP/1.1" 404 1016
127.0.0.1 - - [23/Sep/2017:12:26:35 +0700] "GET / HTTP/1.1" 404 994
0:0:0:0:0:0:0:1 - - [23/Sep/2017:12:26:36 +0700] "GET /Module03_02_Servlet/showproduct.jsp HTTP/1.1" 200 36361
0:0:0:0:0:0:0:1 - - [23/Sep/2017:12:26:36 +0700] "GET /Module03_02_Servlet/public/vendor/bootstrap/css/bootstrap.min.css HTTP/1.1" 200 124962
0:0:0:0:0:0:0:1 - - [23/Sep/2017:12:26:36 +0700] "GET /Module03_02_Servlet/public/css/shop-homepage.css HTTP/1.1" 200 360
0:0:0:0:0:0:0:1 - - [23/Sep/2017:12:26:36 +0700] "GET /Module03_02_Servlet/public/vendor/jquery/jquery.min.js HTTP/1.1" 200 86659
0:0:0:0:0:0:0:1 - - [23/Sep/2017:12:26:36 +0700] "GET /Module03_02_Servlet/public/vendor/popper/popper.min.js HTTP/1.1" 200 19033
0:0:0:0:0:0:0:1 - - [23/Sep/2017:12:26:36 +0700] "GET /Module03_02_Servlet/public/vendor/bootstrap/js/bootstrap.min.js HTTP/1.1" 200 51143
0:0:0:0:0:0:0:1 - - [23/Sep/2017:12:26:36 +0700] "GET /Module03_02_Servlet/public/images/s_abbott_PediaSure_bot_400.jpg HTTP/1.1" 200 55618
0:0:0:0:0:0:0:1 - - [23/Sep/2017:12:26:36 +0700] "GET /Module03_02_Servlet/public/images/s_abbott_similac_400.jpg HTTP/1.1" 200 53381
0:0:0:0:0:0:0:1 - - [23/Sep/2017:12:26:36 +0700] "GET /Module03_02_Servlet/public/images/s_abbott_school_bot_400.jpg HTTP/1.1" 200 53651
0:0:0:0:0:0:0:1 - - [23/Sep/2017:12:26:36 +0700] "GET /Module03_02_Servlet/public/images/s_dutchlady_bot_giay_400.jpg HTTP/1.1" 200 52717
0:0:0:0:0:0:0:1 - - [23/Sep/2017:12:26:36 +0700] "GET /Module03_02_Servlet/public/images/s_dutchlady_canximex_900.jpg HTTP/1.1" 200 7941
0:0:0:0:0:0:0:1 - - [23/Sep/2017:12:26:36 +0700] "GET /Module03_02_Servlet/public/images/s_dutchlady_friso_400.jpg HTTP/1.1" 200 4703
0:0:0:0:0:0:0:1 - - [23/Sep/2017:12:26:36 +0700] "GET /Module03_02_Servlet/public/images/s_abbott_gainadvance_bot_400.jpg HTTP/1.1" 200 51709
0:0:0:0:0:0:0:1 - - [23/Sep/2017:12:26:36 +0700] "GET /Module03_02_Servlet/public/images/s_abbott_grow_400.jpg HTTP/1.1" 200 59166
0:0:0:0:0:0:0:1 - - [23/Sep/2017:12:26:36 +0700] "GET /Module03_02_Servlet/public/images/s_dutchlady_123_bot.jpg HTTP/1.1" 200 54982
0:0:0:0:0:0:0:1 - - [23/Sep/2017:12:26:36 +0700] "GET /Module03_02_Servlet/public/images/s_abbott_ganiq.jpg HTTP/1.1" 200 45528
0:0:0:0:0:0:0:1 - - [23/Sep/2017:12:26:36 +0700] "GET /Module03_02_Servlet/public/images/s_dutchlady_bot_giay_456_400.jpg HTTP/1.1" 200 58005
0:0:0:0:0:0:0:1 - - [23/Sep/2017:12:26:36 +0700] "GET /Module03_02_Servlet/public/images/s_dutchlady_dac_truong_sinh.jpg HTTP/1.1" 200 7288
0:0:0:0:0:0:0:1 - - [23/Sep/2017:12:26:36 +0700] "GET /Module03_02_Servlet/public/images/s_dutchlady_dac_hoan_hao.jpg HTTP/1.1" 200 8344
0:0:0:0:0:0:0:1 - - [23/Sep/2017:12:26:36 +0700] "GET /Module03_02_Servlet/public/images/s_dutchlady_chua.jpg HTTP/1.1" 200 5067
0:0:0:0:0:0:0:1 - - [23/Sep/2017:12:26:36 +0700] "GET /Module03_02_Servlet/public/images/s_dutchlady_tuoi.jpg HTTP/1.1" 200 7425
0:0:0:0:0:0:0:1 - - [23/Sep/2017:12:26:36 +0700] "GET /Module03_02_Servlet/public/images/s_dutchlady_chua_uong.jpg HTTP/1.1" 200 7176
0:0:0:0:0:0:0:1 - - [23/Sep/2017:12:26:36 +0700] "GET /Module03_02_Servlet/public/images/s_daisy_900.jpg HTTP/1.1" 200 54281
0:0:0:0:0:0:0:1 - - [23/Sep/2017:12:26:36 +0700] "GET /Module03_02_Servlet/public/images/s_daisy_bot_400.jpg HTTP/1.1" 200 55350
0:0:0:0:0:0:0:1 - - [23/Sep/2017:12:26:36 +0700] "GET /Module03_02_Servlet/public/images/s_meadJohnson_mama.jpg HTTP/1.1" 200 5594
0:0:0:0:0:0:0:1 - - [23/Sep/2017:12:26:36 +0700] "GET /Module03_02_Servlet/public/images/s_meadJohnson_enfalac.jpg HTTP/1.1" 200 4979
0:0:0:0:0:0:0:1 - - [23/Sep/2017:12:26:36 +0700] "GET /Module03_02_Servlet/public/images/s_meadJohnson_enfagrow.jpg HTTP/1.1" 200 5031
0:0:0:0:0:0:0:1 - - [23/Sep/2017:12:26:36 +0700] "GET /Module03_02_Servlet/public/images/s_dutchlady_fristi.jpg HTTP/1.1" 200 12029
0:0:0:0:0:0:0:1 - - [23/Sep/2017:12:26:36 +0700] "GET /Module03_02_Servlet/public/images/s_meadJohnson_enfapro.jpg HTTP/1.1" 200 5694
0:0:0:0:0:0:0:1 - - [23/Sep/2017:12:26:36 +0700] "GET /Module03_02_Servlet/public/images/s_meadJohnson_enfaproA.jpg HTTP/1.1" 200 5823
0:0:0:0:0:0:0:1 - - [23/Sep/2017:12:26:36 +0700] "GET /Module03_02_Servlet/public/images/s_nutifood_mum.jpg HTTP/1.1" 200 41390
0:0:0:0:0:0:0:1 - - [23/Sep/2017:12:26:36 +0700] "GET /Module03_02_Servlet/public/images/s_nutifood_obilac.jpg HTTP/1.1" 200 39159
0:0:0:0:0:0:0:1 - - [23/Sep/2017:12:26:36 +0700] "GET /Module03_02_Servlet/public/images/s_nutifood_nutiIQ.jpg HTTP/1.1" 200 43302
0:0:0:0:0:0:0:1 - - [23/Sep/2017:12:26:36 +0700] "GET /Module03_02_Servlet/public/images/s_nutifood_vita.jpg HTTP/1.1" 200 37098
0:0:0:0:0:0:0:1 - - [23/Sep/2017:12:26:36 +0700] "GET /Module03_02_Servlet/public/images/s_nutifood_nguyen_kem.jpg HTTP/1.1" 200 44476
0:0:0:0:0:0:0:1 - - [23/Sep/2017:12:26:36 +0700] "GET /Module03_02_Servlet/public/images/s_nutifood_tuoi_vita.jpg HTTP/1.1" 200 7380
0:0:0:0:0:0:0:1 - - [23/Sep/2017:12:26:36 +0700] "GET /Module03_02_Servlet/public/images/s_nutifood_diabetcare.jpg HTTP/1.1" 200 5899
0:0:0:0:0:0:0:1 - - [23/Sep/2017:12:26:36 +0700] "GET /Module03_02_Servlet/public/images/s_vinamilk_dac_trang.jpg HTTP/1.1" 200 62844
0:0:0:0:0:0:0:1 - - [23/Sep/2017:12:26:36 +0700] "GET /Module03_02_Servlet/public/images/s_vnamilk_ngoi_sao_phuong_nam.jpg HTTP/1.1" 200 5914
0:0:0:0:0:0:0:1 - - [23/Sep/2017:12:26:37 +0700] "GET /Module03_02_Servlet/public/images/s_vinamilk_nuoc_Milk-S.gif HTTP/1.1" 200 13191
0:0:0:0:0:0:0:1 - - [23/Sep/2017:12:26:37 +0700] "GET /Module03_02_Servlet/public/images/s_vinamilk_nuoc.jpg HTTP/1.1" 200 36629
0:0:0:0:0:0:0:1 - - [23/Sep/2017:12:26:37 +0700] "GET /Module03_02_Servlet/public/images/s_vinmilk_chua_PlusS.gif HTTP/1.1" 200 13042
0:0:0:0:0:0:0:1 - - [23/Sep/2017:12:26:37 +0700] "GET /Module03_02_Servlet/public/images/s_vnamilk_dielac_alpha.jpg HTTP/1.1" 200 41823
0:0:0:0:0:0:0:1 - - [23/Sep/2017:12:26:37 +0700] "GET /Module03_02_Servlet/public/images/s_vinamilk_dielac_start.jpg HTTP/1.1" 200 5090
0:0:0:0:0:0:0:1 - - [23/Sep/2017:12:26:37 +0700] "GET /Module03_02_Servlet/public/images/s_vinamilk_dielac.jpg HTTP/1.1" 200 32829
0:0:0:0:0:0:0:1 - - [23/Sep/2017:12:26:37 +0700] "GET /Module03_02_Servlet/public/images/s_vinamilk_bot_Dielac-Canxi-g-small.gif HTTP/1.1" 200 11130
0:0:0:0:0:0:0:1 - - [23/Sep/2017:12:26:37 +0700] "GET /Module03_02_Servlet/public/images/s_vinamilk_bot_mamma.jpg HTTP/1.1" 200 51492
0:0:0:0:0:0:0:1 - - [23/Sep/2017:12:26:37 +0700] "GET /Module03_02_Servlet/public/images/s_vinamilk_dd.jpg HTTP/1.1" 200 27418
0:0:0:0:0:0:0:1 - - [23/Sep/2017:12:26:37 +0700] "GET /Module03_02_Servlet/public/images/s_vnamilk_dielac_sure.jpg HTTP/1.1" 200 4036
0:0:0:0:0:0:0:1 - - [23/Sep/2017:12:26:41 +0700] "POST /Module03_02_Servlet/showproduct.jsp HTTP/1.1" 200 36361
0:0:0:0:0:0:0:1 - - [23/Sep/2017:12:26:43 +0700] "POST /Module03_02_Servlet/showproduct.jsp HTTP/1.1" 200 36361
0:0:0:0:0:0:0:1 - - [23/Sep/2017:12:27:52 +0700] "GET /Module03_02_Servlet/baitap04_2_bai08.jsp HTTP/1.1" 200 37096
0:0:0:0:0:0:0:1 - - [23/Sep/2017:12:28:05 +0700] "GET /Module03_02_Servlet/baitap06.jsp?id= HTTP/1.1" 302 -
0:0:0:0:0:0:0:1 - - [23/Sep/2017:12:28:06 +0700] "GET /Module03_02_Servlet/baitap04.jsp HTTP/1.1" 200 11131
0:0:0:0:0:0:0:1 - - [23/Sep/2017:12:29:16 +0700] "GET /Module03_02_Servlet/baitap04_2_bai08.jsp HTTP/1.1" 200 37096
0:0:0:0:0:0:0:1 - - [23/Sep/2017:12:29:17 +0700] "GET /Module03_02_Servlet/baitap04_2_bai08.jsp HTTP/1.1" 200 37096
0:0:0:0:0:0:0:1 - - [23/Sep/2017:12:29:37 +0700] "GET /Module03_02_Servlet/baitap04_2_bai08.jsp HTTP/1.1" 200 37096
0:0:0:0:0:0:0:1 - - [23/Sep/2017:12:34:58 +0700] "GET /Module03_02_Servlet/baitap04_2_bai08.jsp HTTP/1.1" 200 37096
0:0:0:0:0:0:0:1 - - [23/Sep/2017:12:35:03 +0700] "GET /Module03_02_Servlet/baitap04_2_bai08.jsp HTTP/1.1" 200 37096
0:0:0:0:0:0:0:1 - - [23/Sep/2017:12:36:43 +0700] "GET /Module03_02_Servlet/baitap04_2.jsp HTTP/1.1" 200 37336
0:0:0:0:0:0:0:1 - - [23/Sep/2017:12:36:51 +0700] "GET /Module03_02_Servlet/public/vendor/popper/popper.min.js.map HTTP/1.1" 404 1110
0:0:0:0:0:0:0:1 - - [23/Sep/2017:12:36:51 +0700] "GET /Module03_02_Servlet/public/vendor/bootstrap/css/bootstrap.min.css.map HTTP/1.1" 404 1132
0:0:0:0:0:0:0:1 - - [23/Sep/2017:12:38:24 +0700] "GET /Module03_02_Servlet/public/vendor/bootstrap/css/bootstrap.min.css.map HTTP/1.1" 404 1132
0:0:0:0:0:0:0:1 - - [23/Sep/2017:12:38:24 +0700] "GET /Module03_02_Servlet/public/vendor/popper/popper.min.js.map HTTP/1.1" 404 1110
0:0:0:0:0:0:0:1 - - [23/Sep/2017:12:38:25 +0700] "GET /Module03_02_Servlet/baitap04_2_bai08.jsp HTTP/1.1" 200 37354
0:0:0:0:0:0:0:1 - - [23/Sep/2017:12:38:25 +0700] "GET /Module03_02_Servlet/public/vendor/popper/popper.min.js.map HTTP/1.1" 404 1110
0:0:0:0:0:0:0:1 - - [23/Sep/2017:12:38:25 +0700] "GET /Module03_02_Servlet/public/vendor/bootstrap/css/bootstrap.min.css.map HTTP/1.1" 404 1132
0:0:0:0:0:0:0:1 - - [23/Sep/2017:12:38:30 +0700] "POST /Module03_02_Servlet/baitap04_2_bai08.jsp HTTP/1.1" 200 7145
0:0:0:0:0:0:0:1 - - [23/Sep/2017:12:38:31 +0700] "GET /Module03_02_Servlet/public/vendor/popper/popper.min.js.map HTTP/1.1" 404 1110
0:0:0:0:0:0:0:1 - - [23/Sep/2017:12:38:31 +0700] "GET /Module03_02_Servlet/public/vendor/bootstrap/css/bootstrap.min.css.map HTTP/1.1" 404 1132
0:0:0:0:0:0:0:1 - - [23/Sep/2017:13:40:40 +0700] "GET /Module03_02_Servlet/ListKhachhangServlet HTTP/1.1" 500 3326
0:0:0:0:0:0:0:1 - - [23/Sep/2017:13:43:54 +0700] "GET /Module03_02_Servlet/ListKhachhangServlet HTTP/1.1" 200 2711
0:0:0:0:0:0:0:1 - - [23/Sep/2017:13:44:51 +0700] "GET /Module03_02_Servlet/ListKhachhangServlet HTTP/1.1" 200 2711
0:0:0:0:0:0:0:1 - - [23/Sep/2017:13:44:52 +0700] "GET /Module03_02_Servlet/ListKhachhangServlet HTTP/1.1" 200 2711
0:0:0:0:0:0:0:1 - - [23/Sep/2017:14:32:12 +0700] "GET /Module03_02_Servlet/ListKhachhangServlet HTTP/1.1" 200 3599
0:0:0:0:0:0:0:1 - - [23/Sep/2017:14:32:30 +0700] "GET /Module03_02_Servlet/ListKhachhangServlet HTTP/1.1" 200 3575
0:0:0:0:0:0:0:1 - - [23/Sep/2017:14:32:32 +0700] "GET /Module03_02_Servlet/ListKhachhangServlet HTTP/1.1" 200 3575
0:0:0:0:0:0:0:1 - - [23/Sep/2017:14:32:32 +0700] "GET /Module03_02_Servlet/ListKhachhangServlet HTTP/1.1" 200 3575
0:0:0:0:0:0:0:1 - - [23/Sep/2017:14:32:34 +0700] "GET /Module03_02_Servlet/ListKhachhangServlet HTTP/1.1" 200 3575
0:0:0:0:0:0:0:1 - - [23/Sep/2017:14:32:35 +0700] "GET /Module03_02_Servlet/ListKhachhangServlet HTTP/1.1" 200 3567
0:0:0:0:0:0:0:1 - - [23/Sep/2017:15:23:43 +0700] "GET /Module03_02_Servlet/ListKhachhangServlet HTTP/1.1" 200 3567
0:0:0:0:0:0:0:1 - - [23/Sep/2017:15:43:20 +0700] "GET /Module03_02_Servlet/KhachhangServlet HTTP/1.1" 404 1066
0:0:0:0:0:0:0:1 - - [23/Sep/2017:15:43:34 +0700] "GET /Module03_02_Servlet/KhachhangServlet HTTP/1.1" 404 1066
0:0:0:0:0:0:0:1 - - [23/Sep/2017:15:43:36 +0700] "GET /Module03_02_Servlet/KhachhangServlet HTTP/1.1" 404 1066
0:0:0:0:0:0:0:1 - - [23/Sep/2017:15:43:36 +0700] "GET /Module03_02_Servlet/KhachhangServlet HTTP/1.1" 404 1066
0:0:0:0:0:0:0:1 - - [23/Sep/2017:15:43:37 +0700] "GET /Module03_02_Servlet/KhachhangServlet HTTP/1.1" 404 1066
0:0:0:0:0:0:0:1 - - [23/Sep/2017:15:43:37 +0700] "GET /Module03_02_Servlet/KhachhangServlet HTTP/1.1" 404 1066
0:0:0:0:0:0:0:1 - - [23/Sep/2017:15:43:37 +0700] "GET /Module03_02_Servlet/KhachhangServlet HTTP/1.1" 404 1066
0:0:0:0:0:0:0:1 - - [23/Sep/2017:15:43:38 +0700] "GET /Module03_02_Servlet/KhachhangServlet HTTP/1.1" 404 1066
0:0:0:0:0:0:0:1 - - [23/Sep/2017:15:43:53 +0700] "GET /Module03_02_Servlet/KhachHangServlet HTTP/1.1" 200 3783
0:0:0:0:0:0:0:1 - - [23/Sep/2017:15:47:07 +0700] "GET /Module03_02_Servlet/KhachHangServlet HTTP/1.1" 200 3783
0:0:0:0:0:0:0:1 - - [23/Sep/2017:15:47:08 +0700] "GET /Module03_02_Servlet/KhachHangServlet HTTP/1.1" 200 3783
0:0:0:0:0:0:0:1 - - [23/Sep/2017:15:47:08 +0700] "GET /Module03_02_Servlet/KhachHangServlet HTTP/1.1" 200 3783
0:0:0:0:0:0:0:1 - - [23/Sep/2017:15:48:18 +0700] "GET /Module03_02_Servlet/KhachHangServlet HTTP/1.1" 200 4103
0:0:0:0:0:0:0:1 - - [23/Sep/2017:15:48:21 +0700] "GET /Module03_02_Servlet/KhachHangServlet?action=update&id=kh001 HTTP/1.1" 200 4103
0:0:0:0:0:0:0:1 - - [23/Sep/2017:15:48:24 +0700] "GET /Module03_02_Servlet/KhachHangServlet?action=update&id=kh001 HTTP/1.1" 200 4103
0:0:0:0:0:0:0:1 - - [23/Sep/2017:15:48:49 +0700] "GET /Module03_02_Servlet/KhachHangServlet?action=update&id=kh001 HTTP/1.1" 200 4103
0:0:0:0:0:0:0:1 - - [23/Sep/2017:15:48:51 +0700] "GET /Module03_02_Servlet/KhachHangServlet?action=update&id=kh003 HTTP/1.1" 200 4103
0:0:0:0:0:0:0:1 - - [23/Sep/2017:15:48:52 +0700] "GET /Module03_02_Servlet/KhachHangServlet?action=update&id=kh003 HTTP/1.1" 200 4103
0:0:0:0:0:0:0:1 - - [23/Sep/2017:15:49:16 +0700] "GET /Module03_02_Servlet/KhachHangServlet HTTP/1.1" 200 4103
0:0:0:0:0:0:0:1 - - [23/Sep/2017:15:49:45 +0700] "GET /Module03_02_Servlet/KhachHangServlet HTTP/1.1" 200 4103
0:0:0:0:0:0:0:1 - - [23/Sep/2017:15:49:50 +0700] "GET /Module03_02_Servlet/KhachHangServlet?action=update&id=kh001 HTTP/1.1" 200 4103
0:0:0:0:0:0:0:1 - - [23/Sep/2017:15:50:35 +0700] "GET /Module03_02_Servlet/KhachHangServlet?action=add HTTP/1.1" 200 4103
0:0:0:0:0:0:0:1 - - [23/Sep/2017:15:50:56 +0700] "GET /Module03_02_Servlet/KhachHangServlet?action=add HTTP/1.1" 200 4103
0:0:0:0:0:0:0:1 - - [23/Sep/2017:15:50:57 +0700] "GET /Module03_02_Servlet/KhachHangServlet?action=add HTTP/1.1" 200 4103
0:0:0:0:0:0:0:1 - - [23/Sep/2017:15:50:58 +0700] "GET /Module03_02_Servlet/KhachHangServlet?action=add HTTP/1.1" 200 4103
0:0:0:0:0:0:0:1 - - [23/Sep/2017:15:50:58 +0700] "GET /Module03_02_Servlet/KhachHangServlet?action=add HTTP/1.1" 200 4103
0:0:0:0:0:0:0:1 - - [23/Sep/2017:15:51:01 +0700] "GET /Module03_02_Servlet/KhachHangServlet?action=add HTTP/1.1" 200 4103
0:0:0:0:0:0:0:1 - - [23/Sep/2017:15:51:02 +0700] "GET /Module03_02_Servlet/KhachHangServlet?action=add HTTP/1.1" 200 4103
0:0:0:0:0:0:0:1 - - [23/Sep/2017:15:51:03 +0700] "GET /Module03_02_Servlet/KhachHangServlet?action=add HTTP/1.1" 200 4103
0:0:0:0:0:0:0:1 - - [23/Sep/2017:15:51:05 +0700] "GET /Module03_02_Servlet/KhachHangServlet?action=add HTTP/1.1" 200 4103
0:0:0:0:0:0:0:1 - - [23/Sep/2017:15:51:20 +0700] "GET /Module03_02_Servlet/KhachHangServlet?action=add HTTP/1.1" 200 4103
0:0:0:0:0:0:0:1 - - [23/Sep/2017:15:51:21 +0700] "GET /Module03_02_Servlet/KhachHangServlet?action=add HTTP/1.1" 200 4103
0:0:0:0:0:0:0:1 - - [23/Sep/2017:15:51:24 +0700] "GET /Module03_02_Servlet/KhachHangServlet?action= HTTP/1.1" 200 4103
0:0:0:0:0:0:0:1 - - [23/Sep/2017:15:51:27 +0700] "GET /Module03_02_Servlet/KhachHangServlet?action=add HTTP/1.1" 200 4103
0:0:0:0:0:0:0:1 - - [23/Sep/2017:15:52:18 +0700] "GET /Module03_02_Servlet/KhachHangServlet?action=add HTTP/1.1" 200 4103
0:0:0:0:0:0:0:1 - - [23/Sep/2017:15:52:22 +0700] "GET /Module03_02_Servlet/KhachHangServlet HTTP/1.1" 200 4103
0:0:0:0:0:0:0:1 - - [23/Sep/2017:15:52:28 +0700] "GET /Module03_02_Servlet/KhachHangServlet?action=update&id=kh001 HTTP/1.1" 200 4103
0:0:0:0:0:0:0:1 - - [23/Sep/2017:15:56:21 +0700] "GET /Module03_02_Servlet/KhachHangServlet?action=update&id=kh001 HTTP/1.1" 200 4103
0:0:0:0:0:0:0:1 - - [23/Sep/2017:15:56:31 +0700] "GET /Module03_02_Servlet/KhachHangServlet?action=update&id=kh001 HTTP/1.1" 200 2041
0:0:0:0:0:0:0:1 - - [23/Sep/2017:15:57:37 +0700] "GET /Module03_02_Servlet/KhachHangServlet?action=add HTTP/1.1" 302 -
0:0:0:0:0:0:0:1 - - [23/Sep/2017:15:57:37 +0700] "GET /Module03_02_Servlet/baitap11_Them_CapNhat.jsp HTTP/1.1" 200 2041
0:0:0:0:0:0:0:1 - - [23/Sep/2017:16:00:00 +0700] "GET /Module03_02_Servlet/baitap11_Them_CapNhat.jsp HTTP/1.1" 200 2041
0:0:0:0:0:0:0:1 - - [23/Sep/2017:16:00:07 +0700] "GET /Module03_02_Servlet/KhachHangServlet HTTP/1.1" 500 1473
0:0:0:0:0:0:0:1 - - [23/Sep/2017:16:00:29 +0700] "GET /Module03_02_Servlet/KhachHangServlet HTTP/1.1" 500 1473
0:0:0:0:0:0:0:1 - - [23/Sep/2017:16:00:52 +0700] "GET /Module03_02_Servlet/KhachHangServlet HTTP/1.1" 500 1473
0:0:0:0:0:0:0:1 - - [23/Sep/2017:16:01:13 +0700] "GET /Module03_02_Servlet/KhachHangServlet HTTP/1.1" 500 1473
0:0:0:0:0:0:0:1 - - [23/Sep/2017:16:01:37 +0700] "GET /Module03_02_Servlet/KhachHangServlet HTTP/1.1" 500 1473
0:0:0:0:0:0:0:1 - - [23/Sep/2017:16:01:43 +0700] "GET /Module03_02_Servlet/KhachHangServlet?action=index HTTP/1.1" 200 4103
0:0:0:0:0:0:0:1 - - [23/Sep/2017:16:02:27 +0700] "GET /Module03_02_Servlet/KhachHangServlet?action=index HTTP/1.1" 200 4103
0:0:0:0:0:0:0:1 - - [23/Sep/2017:16:02:33 +0700] "GET /Module03_02_Servlet/KhachHangServlet HTTP/1.1" 200 4103
0:0:0:0:0:0:0:1 - - [23/Sep/2017:16:02:35 +0700] "GET /Module03_02_Servlet/KhachHangServlet HTTP/1.1" 200 4103
0:0:0:0:0:0:0:1 - - [23/Sep/2017:16:02:36 +0700] "GET /Module03_02_Servlet/KhachHangServlet HTTP/1.1" 200 4103
0:0:0:0:0:0:0:1 - - [23/Sep/2017:16:02:38 +0700] "GET /Module03_02_Servlet/KhachHangServlet HTTP/1.1" 200 4103
0:0:0:0:0:0:0:1 - - [23/Sep/2017:16:02:39 +0700] "GET /Module03_02_Servlet/KhachHangServlet HTTP/1.1" 200 4103
0:0:0:0:0:0:0:1 - - [23/Sep/2017:16:02:39 +0700] "GET /Module03_02_Servlet/KhachHangServlet HTTP/1.1" 200 4103
0:0:0:0:0:0:0:1 - - [23/Sep/2017:16:02:39 +0700] "GET /Module03_02_Servlet/KhachHangServlet HTTP/1.1" 200 4103
127.0.0.1 - - [23/Sep/2017:16:10:24 +0700] "GET / HTTP/1.1" 404 994
0:0:0:0:0:0:0:1 - - [23/Sep/2017:16:10:25 +0700] "GET /Module03_02_Servlet/baitap11_List.jsp HTTP/1.1" 500 3185
0:0:0:0:0:0:0:1 - - [23/Sep/2017:16:12:23 +0700] "GET /Module03_02_Servlet/ListKhachhangServlet HTTP/1.1" 200 4226
0:0:0:0:0:0:0:1 - - [23/Sep/2017:16:12:24 +0700] "GET /Module03_02_Servlet/ListKhachhangServlet HTTP/1.1" 200 4226
127.0.0.1 - - [23/Sep/2017:21:49:02 +0700] "GET / HTTP/1.1" 404 994
0:0:0:0:0:0:0:1 - - [23/Sep/2017:21:49:39 +0700] "GET /Module03_02_Servlet/ListKhachhangServlet HTTP/1.1" 404 1068
0:0:0:0:0:0:0:1 - - [23/Sep/2017:21:49:40 +0700] "GET /favicon.ico HTTP/1.1" 404 1016
0:0:0:0:0:0:0:1 - - [23/Sep/2017:21:50:05 +0700] "GET /Module03_02_Servlet/KhachHangServlet HTTP/1.1" 404 1068
0:0:0:0:0:0:0:1 - - [23/Sep/2017:21:50:07 +0700] "GET /Module03_02_Servlet/KhachHangServlet HTTP/1.1" 404 1068
0:0:0:0:0:0:0:1 - - [23/Sep/2017:21:50:09 +0700] "GET /Module03_02_Servlet/KhachHangServlet HTTP/1.1" 404 1068
0:0:0:0:0:0:0:1 - - [23/Sep/2017:21:50:40 +0700] "GET /Module03_02_Servlet/KhachHangServlet HTTP/1.1" 404 1068
0:0:0:0:0:0:0:1 - - [23/Sep/2017:21:50:41 +0700] "GET /Module03_02_Servlet/KhachHangServlet HTTP/1.1" 404 1068
0:0:0:0:0:0:0:1 - - [23/Sep/2017:21:50:42 +0700] "GET /Module03_02_Servlet/KhachHangServlet HTTP/1.1" 404 1068
0:0:0:0:0:0:0:1 - - [23/Sep/2017:21:50:42 +0700] "GET /Module03_02_Servlet/KhachHangServlet HTTP/1.1" 404 1068
0:0:0:0:0:0:0:1 - - [23/Sep/2017:21:50:47 +0700] "GET /Module03_02_Servlet/KhachHangServlet HTTP/1.1" 200 4226
0:0:0:0:0:0:0:1 - - [23/Sep/2017:21:50:47 +0700] "GET /Module03_02_Servlet/public/vendor/bootstrap/js/bootstrap.min.js HTTP/1.1" 200 51143
0:0:0:0:0:0:0:1 - - [23/Sep/2017:21:50:47 +0700] "GET /Module03_02_Servlet/public/vendor/bootstrap/css/bootstrap.min.css HTTP/1.1" 200 124962
0:0:0:0:0:0:0:1 - - [23/Sep/2017:21:50:47 +0700] "GET /Module03_02_Servlet/public/vendor/popper/popper.min.js HTTP/1.1" 200 19033
0:0:0:0:0:0:0:1 - - [23/Sep/2017:21:50:47 +0700] "GET /Module03_02_Servlet/public/vendor/jquery/jquery.min.js HTTP/1.1" 200 86659
0:0:0:0:0:0:0:1 - - [23/Sep/2017:21:54:33 +0700] "GET /Module03_02_Servlet/KhachHangServlet HTTP/1.1" 200 4226
0:0:0:0:0:0:0:1 - - [23/Sep/2017:22:33:04 +0700] "GET /Module03_02_Servlet/KhachHangServlet HTTP/1.1" 200 4229
0:0:0:0:0:0:0:1 - - [23/Sep/2017:22:33:07 +0700] "GET /Module03_02_Servlet/KhachHangServlet?action=update&id=kh001 HTTP/1.1" 200 2070
0:0:0:0:0:0:0:1 - - [23/Sep/2017:22:35:06 +0700] "GET /Module03_02_Servlet/KhachHangServlet?action=update&id=kh001 HTTP/1.1" 200 2071
0:0:0:0:0:0:0:1 - - [23/Sep/2017:22:35:07 +0700] "GET /Module03_02_Servlet/KhachHangServlet?action=update&id=kh001 HTTP/1.1" 200 2071
0:0:0:0:0:0:0:1 - - [23/Sep/2017:22:35:19 +0700] "GET /Module03_02_Servlet/KhachHangServlet?action=update&id=kh001 HTTP/1.1" 200 2072
0:0:0:0:0:0:0:1 - - [23/Sep/2017:22:35:21 +0700] "GET /Module03_02_Servlet/KhachHangServlet?action=update&id=kh001 HTTP/1.1" 200 2072
0:0:0:0:0:0:0:1 - - [23/Sep/2017:22:35:25 +0700] "GET /Module03_02_Servlet/public/vendor/bootstrap/css/bootstrap.min.css.map HTTP/1.1" 404 1132
0:0:0:0:0:0:0:1 - - [23/Sep/2017:22:35:51 +0700] "GET /Module03_02_Servlet/KhachHangServlet?action=update&id=kh001 HTTP/1.1" 200 2087
0:0:0:0:0:0:0:1 - - [23/Sep/2017:22:35:51 +0700] "GET /Module03_02_Servlet/public/vendor/popper/popper.min.js.map HTTP/1.1" 404 1110
0:0:0:0:0:0:0:1 - - [23/Sep/2017:22:35:51 +0700] "GET /Module03_02_Servlet/public/vendor/bootstrap/css/bootstrap.min.css.map HTTP/1.1" 404 1132
0:0:0:0:0:0:0:1 - - [23/Sep/2017:22:35:52 +0700] "GET /Module03_02_Servlet/KhachHangServlet?action=update&id=kh001 HTTP/1.1" 200 2087
0:0:0:0:0:0:0:1 - - [23/Sep/2017:22:35:53 +0700] "GET /Module03_02_Servlet/public/vendor/popper/popper.min.js.map HTTP/1.1" 404 1110
0:0:0:0:0:0:0:1 - - [23/Sep/2017:22:35:53 +0700] "GET /Module03_02_Servlet/public/vendor/bootstrap/css/bootstrap.min.css.map HTTP/1.1" 404 1132
0:0:0:0:0:0:0:1 - - [23/Sep/2017:22:36:41 +0700] "GET /Module03_02_Servlet/KhachHangServlet?action=update&id=kh001 HTTP/1.1" 200 2150
0:0:0:0:0:0:0:1 - - [23/Sep/2017:22:36:41 +0700] "GET /Module03_02_Servlet/public/vendor/popper/popper.min.js.map HTTP/1.1" 404 1110
0:0:0:0:0:0:0:1 - - [23/Sep/2017:22:36:41 +0700] "GET /Module03_02_Servlet/public/vendor/bootstrap/css/bootstrap.min.css.map HTTP/1.1" 404 1132
0:0:0:0:0:0:0:1 - - [23/Sep/2017:22:36:48 +0700] "GET /Module03_02_Servlet/public/vendor/popper/popper.min.js.map HTTP/1.1" 404 1110
0:0:0:0:0:0:0:1 - - [23/Sep/2017:22:36:48 +0700] "GET /Module03_02_Servlet/public/vendor/bootstrap/css/bootstrap.min.css.map HTTP/1.1" 404 1132
0:0:0:0:0:0:0:1 - - [23/Sep/2017:22:36:50 +0700] "GET /Module03_02_Servlet/KhachHangServlet?action=update&id=kh002 HTTP/1.1" 200 2136
0:0:0:0:0:0:0:1 - - [23/Sep/2017:22:36:50 +0700] "GET /Module03_02_Servlet/public/vendor/popper/popper.min.js.map HTTP/1.1" 404 1110
0:0:0:0:0:0:0:1 - - [23/Sep/2017:22:36:50 +0700] "GET /Module03_02_Servlet/public/vendor/bootstrap/css/bootstrap.min.css.map HTTP/1.1" 404 1132
0:0:0:0:0:0:0:1 - - [23/Sep/2017:22:36:52 +0700] "GET /Module03_02_Servlet/public/vendor/popper/popper.min.js.map HTTP/1.1" 404 1110
0:0:0:0:0:0:0:1 - - [23/Sep/2017:22:36:52 +0700] "GET /Module03_02_Servlet/public/vendor/bootstrap/css/bootstrap.min.css.map HTTP/1.1" 404 1132
0:0:0:0:0:0:0:1 - - [23/Sep/2017:22:36:56 +0700] "GET /Module03_02_Servlet/KhachHangServlet?action=add HTTP/1.1" 500 3649
0:0:0:0:0:0:0:1 - - [23/Sep/2017:22:37:30 +0700] "GET /Module03_02_Servlet/KhachHangServlet?action=add HTTP/1.1" 200 2080
0:0:0:0:0:0:0:1 - - [23/Sep/2017:22:37:31 +0700] "GET /Module03_02_Servlet/public/vendor/popper/popper.min.js.map HTTP/1.1" 404 1110
0:0:0:0:0:0:0:1 - - [23/Sep/2017:22:37:31 +0700] "GET /Module03_02_Servlet/public/vendor/bootstrap/css/bootstrap.min.css.map HTTP/1.1" 404 1132
0:0:0:0:0:0:0:1 - - [23/Sep/2017:22:37:32 +0700] "GET /Module03_02_Servlet/KhachHangServlet?action=add HTTP/1.1" 200 2080
0:0:0:0:0:0:0:1 - - [23/Sep/2017:22:37:33 +0700] "GET /Module03_02_Servlet/public/vendor/popper/popper.min.js.map HTTP/1.1" 404 1110
0:0:0:0:0:0:0:1 - - [23/Sep/2017:22:37:33 +0700] "GET /Module03_02_Servlet/public/vendor/bootstrap/css/bootstrap.min.css.map HTTP/1.1" 404 1132
0:0:0:0:0:0:0:1 - - [23/Sep/2017:22:40:17 +0700] "GET /Module03_02_Servlet/KhachHangServlet?action=add HTTP/1.1" 200 2045
0:0:0:0:0:0:0:1 - - [23/Sep/2017:22:40:17 +0700] "GET /Module03_02_Servlet/public/vendor/popper/popper.min.js.map HTTP/1.1" 404 1110
0:0:0:0:0:0:0:1 - - [23/Sep/2017:22:40:17 +0700] "GET /Module03_02_Servlet/public/vendor/bootstrap/css/bootstrap.min.css.map HTTP/1.1" 404 1132
0:0:0:0:0:0:0:1 - - [23/Sep/2017:22:40:21 +0700] "GET /Module03_02_Servlet/KhachHangServlet?action=add HTTP/1.1" 200 2045
0:0:0:0:0:0:0:1 - - [23/Sep/2017:22:40:21 +0700] "GET /Module03_02_Servlet/public/vendor/popper/popper.min.js.map HTTP/1.1" 404 1110
0:0:0:0:0:0:0:1 - - [23/Sep/2017:22:40:21 +0700] "GET /Module03_02_Servlet/public/vendor/bootstrap/css/bootstrap.min.css.map HTTP/1.1" 404 1132
0:0:0:0:0:0:0:1 - - [23/Sep/2017:22:42:26 +0700] "GET /Module03_02_Servlet/KhachHangServlet?action=add HTTP/1.1" 200 2045
0:0:0:0:0:0:0:1 - - [23/Sep/2017:22:42:26 +0700] "GET /Module03_02_Servlet/public/vendor/popper/popper.min.js.map HTTP/1.1" 404 1110
0:0:0:0:0:0:0:1 - - [23/Sep/2017:22:42:27 +0700] "GET /Module03_02_Servlet/public/vendor/bootstrap/css/bootstrap.min.css.map HTTP/1.1" 404 1132
0:0:0:0:0:0:0:1 - - [23/Sep/2017:22:42:42 +0700] "GET /Module03_02_Servlet/public/vendor/popper/popper.min.js.map HTTP/1.1" 404 1110
0:0:0:0:0:0:0:1 - - [23/Sep/2017:22:42:42 +0700] "GET /Module03_02_Servlet/public/vendor/bootstrap/css/bootstrap.min.css.map HTTP/1.1" 404 1132
0:0:0:0:0:0:0:1 - - [23/Sep/2017:22:42:44 +0700] "GET /Module03_02_Servlet/KhachHangServlet HTTP/1.1" 200 4229
0:0:0:0:0:0:0:1 - - [23/Sep/2017:22:42:44 +0700] "GET /Module03_02_Servlet/public/vendor/popper/popper.min.js.map HTTP/1.1" 404 1110
0:0:0:0:0:0:0:1 - - [23/Sep/2017:22:42:44 +0700] "GET /Module03_02_Servlet/public/vendor/bootstrap/css/bootstrap.min.css.map HTTP/1.1" 404 1132
0:0:0:0:0:0:0:1 - - [23/Sep/2017:22:42:46 +0700] "GET /Module03_02_Servlet/KhachHangServlet HTTP/1.1" 200 4229
0:0:0:0:0:0:0:1 - - [23/Sep/2017:22:42:46 +0700] "GET /Module03_02_Servlet/public/vendor/popper/popper.min.js.map HTTP/1.1" 404 1110
0:0:0:0:0:0:0:1 - - [23/Sep/2017:22:42:46 +0700] "GET /Module03_02_Servlet/public/vendor/bootstrap/css/bootstrap.min.css.map HTTP/1.1" 404 1132
0:0:0:0:0:0:0:1 - - [23/Sep/2017:22:42:50 +0700] "GET /Module03_02_Servlet/KhachHangServlet?action=update&id=kh004 HTTP/1.1" 200 2145
0:0:0:0:0:0:0:1 - - [23/Sep/2017:22:42:50 +0700] "GET /Module03_02_Servlet/public/vendor/popper/popper.min.js.map HTTP/1.1" 404 1110
0:0:0:0:0:0:0:1 - - [23/Sep/2017:22:42:50 +0700] "GET /Module03_02_Servlet/public/vendor/bootstrap/css/bootstrap.min.css.map HTTP/1.1" 404 1132
0:0:0:0:0:0:0:1 - - [23/Sep/2017:22:42:53 +0700] "GET /Module03_02_Servlet/public/vendor/popper/popper.min.js.map HTTP/1.1" 404 1110
0:0:0:0:0:0:0:1 - - [23/Sep/2017:22:42:53 +0700] "GET /Module03_02_Servlet/public/vendor/bootstrap/css/bootstrap.min.css.map HTTP/1.1" 404 1132
0:0:0:0:0:0:0:1 - - [23/Sep/2017:22:53:07 +0700] "GET /Module03_02_Servlet/taglibtest.jsp HTTP/1.1" 500 2894
0:0:0:0:0:0:0:1 - - [23/Sep/2017:22:53:32 +0700] "GET /Module03_02_Servlet/taglibtest.jsp HTTP/1.1" 200 296
0:0:0:0:0:0:0:1 - - [23/Sep/2017:22:53:33 +0700] "GET /Module03_02_Servlet/taglibtest.jsp HTTP/1.1" 200 296
0:0:0:0:0:0:0:1 - - [23/Sep/2017:22:53:58 +0700] "GET /Module03_02_Servlet/taglibtest.jsp HTTP/1.1" 200 296
0:0:0:0:0:0:0:1 - - [23/Sep/2017:22:53:58 +0700] "GET /Module03_02_Servlet/taglibtest.jsp HTTP/1.1" 200 296
0:0:0:0:0:0:0:1 - - [23/Sep/2017:22:53:59 +0700] "GET /Module03_02_Servlet/taglibtest.jsp HTTP/1.1" 200 296
0:0:0:0:0:0:0:1 - - [23/Sep/2017:22:54:00 +0700] "GET /Module03_02_Servlet/taglibtest.jsp HTTP/1.1" 200 296
0:0:0:0:0:0:0:1 - - [23/Sep/2017:22:54:00 +0700] "GET /Module03_02_Servlet/taglibtest.jsp HTTP/1.1" 200 296
0:0:0:0:0:0:0:1 - - [23/Sep/2017:22:54:01 +0700] "GET /Module03_02_Servlet/taglibtest.jsp HTTP/1.1" 200 296
0:0:0:0:0:0:0:1 - - [23/Sep/2017:22:54:01 +0700] "GET /Module03_02_Servlet/taglibtest.jsp HTTP/1.1" 200 296
0:0:0:0:0:0:0:1 - - [23/Sep/2017:22:54:02 +0700] "GET /Module03_02_Servlet/taglibtest.jsp HTTP/1.1" 200 300
0:0:0:0:0:0:0:1 - - [23/Sep/2017:22:54:02 +0700] "GET /Module03_02_Servlet/taglibtest.jsp HTTP/1.1" 200 -
0:0:0:0:0:0:0:1 - - [23/Sep/2017:22:54:03 +0700] "GET /Module03_02_Servlet/taglibtest.jsp HTTP/1.1" 200 300
0:0:0:0:0:0:0:1 - - [23/Sep/2017:22:54:03 +0700] "GET /Module03_02_Servlet/taglibtest.jsp HTTP/1.1" 200 300
0:0:0:0:0:0:0:1 - - [23/Sep/2017:22:54:07 +0700] "GET /Module03_02_Servlet/taglibtest.jsp HTTP/1.1" 200 300
0:0:0:0:0:0:0:1 - - [23/Sep/2017:22:55:26 +0700] "GET /Module03_02_Servlet/ HTTP/1.1" 404 1034
0:0:0:0:0:0:0:1 - - [23/Sep/2017:22:55:47 +0700] "GET /Module03_02_Servlet/ HTTP/1.1" 200 37342
0:0:0:0:0:0:0:1 - - [23/Sep/2017:22:55:47 +0700] "GET /Module03_02_Servlet/public/css/shop-homepage.css HTTP/1.1" 200 360
0:0:0:0:0:0:0:1 - - [23/Sep/2017:22:55:47 +0700] "GET /Module03_02_Servlet/public/images/s_abbott_gainadvance_bot_400.jpg HTTP/1.1" 200 51709
0:0:0:0:0:0:0:1 - - [23/Sep/2017:22:55:47 +0700] "GET /Module03_02_Servlet/public/images/s_abbott_similac_400.jpg HTTP/1.1" 200 53381
0:0:0:0:0:0:0:1 - - [23/Sep/2017:22:55:47 +0700] "GET /Module03_02_Servlet/public/images/s_abbott_grow_400.jpg HTTP/1.1" 200 59166
0:0:0:0:0:0:0:1 - - [23/Sep/2017:22:55:47 +0700] "GET /Module03_02_Servlet/public/images/s_abbott_school_bot_400.jpg HTTP/1.1" 200 53651
0:0:0:0:0:0:0:1 - - [23/Sep/2017:22:55:47 +0700] "GET /Module03_02_Servlet/public/images/s_abbott_ganiq.jpg HTTP/1.1" 200 45528
0:0:0:0:0:0:0:1 - - [23/Sep/2017:22:55:47 +0700] "GET /Module03_02_Servlet/public/images/s_abbott_PediaSure_bot_400.jpg HTTP/1.1" 200 55618
0:0:0:0:0:0:0:1 - - [23/Sep/2017:22:55:47 +0700] "GET /Module03_02_Servlet/public/images/s_dutchlady_bot_giay_400.jpg HTTP/1.1" 200 52717
0:0:0:0:0:0:0:1 - - [23/Sep/2017:22:55:47 +0700] "GET /Module03_02_Servlet/public/images/s_dutchlady_canximex_900.jpg HTTP/1.1" 200 7941
0:0:0:0:0:0:0:1 - - [23/Sep/2017:22:55:47 +0700] "GET /Module03_02_Servlet/public/images/s_dutchlady_friso_400.jpg HTTP/1.1" 200 4703
0:0:0:0:0:0:0:1 - - [23/Sep/2017:22:55:47 +0700] "GET /Module03_02_Servlet/public/images/s_dutchlady_123_bot.jpg HTTP/1.1" 200 54982
0:0:0:0:0:0:0:1 - - [23/Sep/2017:22:55:47 +0700] "GET /Module03_02_Servlet/public/images/s_dutchlady_bot_giay_456_400.jpg HTTP/1.1" 200 58005
0:0:0:0:0:0:0:1 - - [23/Sep/2017:22:55:47 +0700] "GET /Module03_02_Servlet/public/images/s_dutchlady_dac_truong_sinh.jpg HTTP/1.1" 200 7288
0:0:0:0:0:0:0:1 - - [23/Sep/2017:22:55:47 +0700] "GET /Module03_02_Servlet/public/images/s_dutchlady_chua.jpg HTTP/1.1" 200 5067
0:0:0:0:0:0:0:1 - - [23/Sep/2017:22:55:47 +0700] "GET /Module03_02_Servlet/public/images/s_dutchlady_dac_hoan_hao.jpg HTTP/1.1" 200 8344
0:0:0:0:0:0:0:1 - - [23/Sep/2017:22:55:47 +0700] "GET /Module03_02_Servlet/public/images/s_dutchlady_chua_uong.jpg HTTP/1.1" 200 7176
0:0:0:0:0:0:0:1 - - [23/Sep/2017:22:55:47 +0700] "GET /Module03_02_Servlet/public/images/s_dutchlady_fristi.jpg HTTP/1.1" 200 12029
0:0:0:0:0:0:0:1 - - [23/Sep/2017:22:55:48 +0700] "GET /Module03_02_Servlet/public/images/s_dutchlady_tuoi.jpg HTTP/1.1" 200 7425
0:0:0:0:0:0:0:1 - - [23/Sep/2017:22:55:48 +0700] "GET /Module03_02_Servlet/public/images/s_daisy_900.jpg HTTP/1.1" 200 54281
0:0:0:0:0:0:0:1 - - [23/Sep/2017:22:55:48 +0700] "GET /Module03_02_Servlet/public/images/s_daisy_bot_400.jpg HTTP/1.1" 200 55350
0:0:0:0:0:0:0:1 - - [23/Sep/2017:22:55:48 +0700] "GET /Module03_02_Servlet/public/images/s_meadJohnson_mama.jpg HTTP/1.1" 200 5594
0:0:0:0:0:0:0:1 - - [23/Sep/2017:22:55:48 +0700] "GET /Module03_02_Servlet/public/images/s_meadJohnson_enfalac.jpg HTTP/1.1" 200 4979
0:0:0:0:0:0:0:1 - - [23/Sep/2017:22:55:48 +0700] "GET /Module03_02_Servlet/public/images/s_meadJohnson_enfagrow.jpg HTTP/1.1" 200 5031
0:0:0:0:0:0:0:1 - - [23/Sep/2017:22:55:48 +0700] "GET /Module03_02_Servlet/public/images/s_meadJohnson_enfapro.jpg HTTP/1.1" 200 5694
0:0:0:0:0:0:0:1 - - [23/Sep/2017:22:55:48 +0700] "GET /Module03_02_Servlet/public/images/s_meadJohnson_enfaproA.jpg HTTP/1.1" 200 5823
0:0:0:0:0:0:0:1 - - [23/Sep/2017:22:55:48 +0700] "GET /Module03_02_Servlet/public/images/s_nutifood_mum.jpg HTTP/1.1" 200 41390
0:0:0:0:0:0:0:1 - - [23/Sep/2017:22:55:48 +0700] "GET /Module03_02_Servlet/public/images/s_nutifood_obilac.jpg HTTP/1.1" 200 39159
0:0:0:0:0:0:0:1 - - [23/Sep/2017:22:55:48 +0700] "GET /Module03_02_Servlet/public/images/s_nutifood_nutiIQ.jpg HTTP/1.1" 200 43302
0:0:0:0:0:0:0:1 - - [23/Sep/2017:22:55:48 +0700] "GET /Module03_02_Servlet/public/images/s_nutifood_vita.jpg HTTP/1.1" 200 37098
0:0:0:0:0:0:0:1 - - [23/Sep/2017:22:55:48 +0700] "GET /Module03_02_Servlet/public/images/s_nutifood_tuoi_vita.jpg HTTP/1.1" 200 7380
0:0:0:0:0:0:0:1 - - [23/Sep/2017:22:55:48 +0700] "GET /Module03_02_Servlet/public/images/s_nutifood_nguyen_kem.jpg HTTP/1.1" 200 44476
0:0:0:0:0:0:0:1 - - [23/Sep/2017:22:55:48 +0700] "GET /Module03_02_Servlet/public/images/s_nutifood_diabetcare.jpg HTTP/1.1" 200 5899
0:0:0:0:0:0:0:1 - - [23/Sep/2017:22:55:48 +0700] "GET /Module03_02_Servlet/public/images/s_vinamilk_dac_trang.jpg HTTP/1.1" 200 62844
0:0:0:0:0:0:0:1 - - [23/Sep/2017:22:55:48 +0700] "GET /Module03_02_Servlet/public/images/s_vnamilk_ngoi_sao_phuong_nam.jpg HTTP/1.1" 200 5914
0:0:0:0:0:0:0:1 - - [23/Sep/2017:22:55:48 +0700] "GET /Module03_02_Servlet/public/images/s_vinamilk_nuoc_Milk-S.gif HTTP/1.1" 200 13191
0:0:0:0:0:0:0:1 - - [23/Sep/2017:22:55:48 +0700] "GET /Module03_02_Servlet/public/images/s_vinamilk_nuoc.jpg HTTP/1.1" 200 36629
0:0:0:0:0:0:0:1 - - [23/Sep/2017:22:55:48 +0700] "GET /Module03_02_Servlet/public/images/s_vnamilk_dielac_alpha.jpg HTTP/1.1" 200 41823
0:0:0:0:0:0:0:1 - - [23/Sep/2017:22:55:48 +0700] "GET /Module03_02_Servlet/public/images/s_vinamilk_dielac_start.jpg HTTP/1.1" 200 5090
0:0:0:0:0:0:0:1 - - [23/Sep/2017:22:55:48 +0700] "GET /Module03_02_Servlet/public/images/s_vinmilk_chua_PlusS.gif HTTP/1.1" 200 13042
0:0:0:0:0:0:0:1 - - [23/Sep/2017:22:55:48 +0700] "GET /Module03_02_Servlet/public/images/s_vinamilk_dielac.jpg HTTP/1.1" 200 32829
0:0:0:0:0:0:0:1 - - [23/Sep/2017:22:55:48 +0700] "GET /Module03_02_Servlet/public/images/s_vinamilk_bot_Dielac-Canxi-g-small.gif HTTP/1.1" 200 11130
0:0:0:0:0:0:0:1 - - [23/Sep/2017:22:55:48 +0700] "GET /Module03_02_Servlet/public/images/s_vinamilk_bot_mamma.jpg HTTP/1.1" 200 51492
0:0:0:0:0:0:0:1 - - [23/Sep/2017:22:55:48 +0700] "GET /Module03_02_Servlet/public/images/s_vinamilk_dd.jpg HTTP/1.1" 200 27418
0:0:0:0:0:0:0:1 - - [23/Sep/2017:22:55:48 +0700] "GET /Module03_02_Servlet/public/images/s_vnamilk_dielac_sure.jpg HTTP/1.1" 200 4036
0:0:0:0:0:0:0:1 - - [23/Sep/2017:22:55:57 +0700] "GET /Module03_02_Servlet/ HTTP/1.1" 200 37342
0:0:0:0:0:0:0:1 - - [23/Sep/2017:22:58:43 +0700] "GET /Module03_02_Servlet/ HTTP/1.1" 200 37342
0:0:0:0:0:0:0:1 - - [23/Sep/2017:22:58:46 +0700] "GET /Module03_02_Servlet/ HTTP/1.1" 200 37342
0:0:0:0:0:0:0:1 - - [23/Sep/2017:22:58:47 +0700] "GET /Module03_02_Servlet/ HTTP/1.1" 200 37342
0:0:0:0:0:0:0:1 - - [23/Sep/2017:22:59:58 +0700] "GET /Module03_02_Servlet/ HTTP/1.1" 500 3330
0:0:0:0:0:0:0:1 - - [23/Sep/2017:22:59:59 +0700] "GET /Module03_02_Servlet/ HTTP/1.1" 200 33924
0:0:0:0:0:0:0:1 - - [23/Sep/2017:23:00:00 +0700] "GET /Module03_02_Servlet/ HTTP/1.1" 200 33924
0:0:0:0:0:0:0:1 - - [23/Sep/2017:23:00:00 +0700] "GET /Module03_02_Servlet/ HTTP/1.1" 200 33924
0:0:0:0:0:0:0:1 - - [23/Sep/2017:23:00:01 +0700] "GET /Module03_02_Servlet/ HTTP/1.1" 200 33924
0:0:0:0:0:0:0:1 - - [23/Sep/2017:23:00:01 +0700] "GET /Module03_02_Servlet/ HTTP/1.1" 200 33924
0:0:0:0:0:0:0:1 - - [23/Sep/2017:23:00:02 +0700] "GET /Module03_02_Servlet/ HTTP/1.1" 500 3330
0:0:0:0:0:0:0:1 - - [23/Sep/2017:23:00:16 +0700] "GET /Module03_02_Servlet/ HTTP/1.1" 200 33920
0:0:0:0:0:0:0:1 - - [23/Sep/2017:23:00:17 +0700] "GET /Module03_02_Servlet/ HTTP/1.1" 200 33920
0:0:0:0:0:0:0:1 - - [23/Sep/2017:23:00:17 +0700] "GET /Module03_02_Servlet/ HTTP/1.1" 200 33920
0:0:0:0:0:0:0:1 - - [23/Sep/2017:23:00:35 +0700] "GET /Module03_02_Servlet/ HTTP/1.1" 200 33920
0:0:0:0:0:0:0:1 - - [23/Sep/2017:23:01:18 +0700] "GET /Module03_02_Servlet/ HTTP/1.1" 200 33920
0:0:0:0:0:0:0:1 - - [23/Sep/2017:23:01:20 +0700] "GET /Module03_02_Servlet/ HTTP/1.1" 200 33920
0:0:0:0:0:0:0:1 - - [23/Sep/2017:23:01:22 +0700] "GET /Module03_02_Servlet/ HTTP/1.1" 200 33920
0:0:0:0:0:0:0:1 - - [23/Sep/2017:23:01:23 +0700] "GET /Module03_02_Servlet/ HTTP/1.1" 200 33920
0:0:0:0:0:0:0:1 - - [23/Sep/2017:23:01:24 +0700] "GET /Module03_02_Servlet/ HTTP/1.1" 200 33920
0:0:0:0:0:0:0:1 - - [23/Sep/2017:23:01:24 +0700] "GET /Module03_02_Servlet/ HTTP/1.1" 200 33920
0:0:0:0:0:0:0:1 - - [23/Sep/2017:23:01:24 +0700] "GET /Module03_02_Servlet/ HTTP/1.1" 200 33920
0:0:0:0:0:0:0:1 - - [23/Sep/2017:23:01:24 +0700] "GET /Module03_02_Servlet/ HTTP/1.1" 200 33920
0:0:0:0:0:0:0:1 - - [23/Sep/2017:23:01:26 +0700] "GET /Module03_02_Servlet/ HTTP/1.1" 200 33920
0:0:0:0:0:0:0:1 - - [23/Sep/2017:23:01:28 +0700] "GET /Module03_02_Servlet/ HTTP/1.1" 200 33920
0:0:0:0:0:0:0:1 - - [23/Sep/2017:23:01:30 +0700] "GET /Module03_02_Servlet/?txtTenSP=a&submit= HTTP/1.1" 200 31199
0:0:0:0:0:0:0:1 - - [23/Sep/2017:23:01:37 +0700] "GET /Module03_02_Servlet/?txtTenSP=ab&submit= HTTP/1.1" 200 6832
0:0:0:0:0:0:0:1 - - [23/Sep/2017:23:01:40 +0700] "GET /Module03_02_Servlet/?txtTenSP=w&submit= HTTP/1.1" 200 6173
0:0:0:0:0:0:0:1 - - [23/Sep/2017:23:01:42 +0700] "GET /Module03_02_Servlet/?txtTenSP=e&submit= HTTP/1.1" 200 19625
0:0:0:0:0:0:0:1 - - [23/Sep/2017:23:01:45 +0700] "GET /Module03_02_Servlet/?txtTenSP=a&submit= HTTP/1.1" 200 31199
0:0:0:0:0:0:0:1 - - [23/Sep/2017:23:01:46 +0700] "GET /Module03_02_Servlet/?txtTenSP=q&submit= HTTP/1.1" 200 5833
0:0:0:0:0:0:0:1 - - [23/Sep/2017:23:20:34 +0700] "GET /Module03_02_Servlet/ HTTP/1.1" 200 33920
0:0:0:0:0:0:0:1 - - [23/Sep/2017:23:38:25 +0700] "GET /Module03_02_Servlet/ HTTP/1.1" 200 33920
0:0:0:0:0:0:0:1 - - [23/Sep/2017:23:42:41 +0700] "GET /Module03_02_Servlet/public/vendor/popper/popper.min.js.map HTTP/1.1" 404 1110
0:0:0:0:0:0:0:1 - - [23/Sep/2017:23:42:41 +0700] "GET /Module03_02_Servlet/public/vendor/bootstrap/css/bootstrap.min.css.map HTTP/1.1" 404 1132
