INDEX VERSION 1.130+C:\Users\BaoHA\Desktop\JAVA PROJECT\Servlet E-commerce\.metadata\.plugins\org.eclipse.jdt.core
3566024477.index
3439400818.index
2841975214.index
1946559310.index
955459938.index
2645222163.index
537724422.index
3129114939.index
275755684.index
2663008219.index
39414472.index
3442003514.index
3876057666.index
4194175065.index
138891378.index
1218084375.index
492397850.index
2273491807.index
950202070.index
3439039382.index
469915257.index
3284854277.index
2308276135.index
66272562.index
1012197361.index
4040040021.index
1769441010.index
4107550288.index
2396838687.index
2449557901.index
1950120593.index
2499430334.index
3479057924.index
452510703.index
956752177.index
899998138.index
3163996356.index
948919066.index
1417411144.index
3198635835.index
1173945041.index
501091631.index
1817446190.index
4029258386.index
1680810439.index
3870001928.index
3100873174.index
2332055170.index
1247470996.index
2971558252.index
2341309489.index
3245142959.index
643741709.index
1933658374.index
2725782233.index
940800111.index
