<?xml version="1.0" encoding="UTF-8"?>
<session version="1.0">
<refactoring accessors="true" comment="Delete element from project &apos;Module03_02_Servlet&apos;&#x0D;&#x0A;- Original project: &apos;Module03_02_Servlet&apos;&#x0D;&#x0A;- Original element: &apos;controllers.ListKhachhangServlet.java&apos;" description="Delete element" element1="/src&lt;controllers{ListKhachhangServlet.java" elements="1" flags="589830" id="org.eclipse.jdt.ui.delete" resources="0" stamp="1506248557142" subPackages="false" version="1.0"/>
</session>